%YAML 1.1
%TAG !u! tag:unity3d.com,2011:
--- !u!114 &11400000
MonoBehaviour:
  m_ObjectHideFlags: 0
  m_CorrespondingSourceObject: {fileID: 0}
  m_PrefabInternal: {fileID: 0}
  m_GameObject: {fileID: 0}
  m_Enabled: 1
  m_EditorHideFlags: 0
  m_Script: {fileID: 11500000, guid: 401ee822c2b9d00439438caeb507b858, type: 3}
  m_Name: Ball_big
  m_EditorClassIdentifier: 
  m_speed: 7.5
  m_radius: 0.9
  m_damage: 2
